{
  "project_info": {
    "project_number": "349783106683",
    "firebase_url": "https://appecoresiliencenpd.firebaseio.com",
    "project_id": "appecoresiliencenpd",
    "storage_bucket": "appecoresiliencenpd.appspot.com"
  },
  "client": [
    {
      "client_info": {
        "mobilesdk_app_id": "1:349783106683:android:88ac78c42dede355",
        "android_client_info": {
          "package_name": "edu.eco.resilience.npd"
        }
      },
      "oauth_client": [
        {
          "client_id": "349783106683-e9uihlahrp7rh6452s4rjri0obbq93ob.apps.googleusercontent.com",
          "client_type": 3
        }
      ],
      "api_key": [
        {
          "current_key": "AIzaSyCi-5e_WkCda0dMYa0ihD2juc-vX2o2l7I"
        }
      ],
      "services": {
        "appinvite_service": {
          "other_platform_oauth_client": [
            {
              "client_id": "349783106683-e9uihlahrp7rh6452s4rjri0obbq93ob.apps.googleusercontent.com",
              "client_type": 3
            }
          ]
        }
      }
    }
  ],
  "configuration_version": "1"
}